Visualizing Single-Participant Data
…
# Create a tibble
student_data <- tibble(week = weeks, scores_math = scores_math, scores_reading = scores_reading, scores_science = scores_science, scores_art = scores_art, scores_music = scores_music, teacher = teacher)

# Display the first few rows of the data
student_data_long <- student_data %>% 
  pivot_longer(cols = c(scores_math, scores_reading, scores_science, scores_art, scores_music)) 

student_data_long

# A tibble: 50 × 4
    week teacher name           value
   <int> <fct>   <chr>          <dbl>
 1     1 Annie   scores_math     78.6
 2     1 Annie   scores_reading  66.3
 3     1 Annie   scores_science  66.8
 4     1 Annie   scores_art      68.1
 5     1 Annie   scores_music    83.2
 6     2 Brandon scores_math     88.5
 7     2 Brandon scores_reading  65.5
 8     2 Brandon scores_science  66.3
 9     2 Brandon scores_art      76.7
10     2 Brandon scores_music    68.5
# … with 40 more rows
…
